{
  "swagger": "2.0",
  "info": {
    "version": "0.0.1",
    "title": "Hello World App"
  },
  "host": "localhost:10010",
  "basePath": "/",
  "schemes": [
    "http"
  ],
  "consumes": [
    "application/json"
  ],
  "produces": [
    "application/json"
  ],
  "paths": {
    "/login": {
      "x-swagger-router-controller": "hello_world",
      "post": {
        "tags": [
          "Login"
        ],
        "description": "Bejelentkezés",
        "operationId": "login",
        "parameters": [
          {
            "name": "loginDTO",
            "in": "body",
            "schema": {
              "$ref": "#/definitions/LoginDTO"
            }
          }
        ],
        "responses": {
          "200": {
            "description": "Sikeres regisztráció",
            "schema": {
              "$ref": "#/definitions/LoginResponseDTO"
            }
          }
        }
      }
    },
    "/users": {
      "x-swagger-router-controller": "hello_world",
      "get": {
        "tags": [
          "User"
        ],
        "operationId": "getUsers",
        "responses": {
          "200": {
            "description": "user lista",
            "schema": {
              "type": "array",
              "items": {
                "$ref": "#/definitions/UserDTO"
              }
            }
          }
        }
      }
    }
  },
  "definitions": {
    "UserDTO": {
      "required": [
        "id",
        "name"
      ],
      "properties": {
        "id": {
          "type": "integer"
        },
        "name": {
          "type": "string"
        }
      }
    },
    "LoginDTO": {
      "required": [
        "username",
        "password"
      ],
      "properties": {
        "username": {
          "type": "string"
        },
        "password": {
          "type": "string"
        }
      }
    },
    "LoginResponseDTO": {
      "required": [
        "name",
        "token"
      ],
      "properties": {
        "name": {
          "type": "string"
        },
        "token": {
          "type": "string"
        }
      }
    }
  }
}
